***************************************************
               _  _           ___ __ ___ ___   ___
  (\____/)    | || |___  __ _|_  )  \_  )_  ) |_  )
  / @__@ \    | __ / _ \/ _` |/ / () / / / / _ / /
 (  (oo)  )   |_||_\___/\__, /___\__/___/___(_)___|
     ~~                 |___/
     
                 ----------------            
 Copyright 2018-2022  The University of Birmingham
***************************************************
